{
  "data": [
    {
      "id": 2,
      "creator_id": 10021,
      "serie_id": 5376,
      "title": "Amazing Spider-Man Family (2008 - 2009)",
      "description": null,
      "start_year": 2008,
      "end_year": 2008,
      "image_url": "http://gateway.marvel.com/v1/public/series/5376",
      "rating": "RATED A",
      "created_at": "2022-10-13T15:10:54.730Z",
      "updated_at": "2022-10-13T15:10:54.730Z"
    },
    {
      "id": 3,
      "creator_id": 10021,
      "serie_id": 18839,
      "title": "Avengers 24.Now by Ross Poster (2014)",
      "description": null,
      "start_year": 2014,
      "end_year": 2014,
      "image_url": "http://gateway.marvel.com/v1/public/series/18839",
      "rating": "",
      "created_at": "2022-10-13T15:10:54.761Z",
      "updated_at": "2022-10-13T15:10:54.761Z"
    },
    {
      "id": 4,
      "creator_id": 10021,
      "serie_id": 18215,
      "title": "AVENGERS A.I. POSTER (2013)",
      "description": null,
      "start_year": 2013,
      "end_year": 2013,
      "image_url": "http://gateway.marvel.com/v1/public/series/18215",
      "rating": "",
      "created_at": "2022-10-13T15:10:54.777Z",
      "updated_at": "2022-10-13T15:10:54.777Z"
    },
    {
      "id": 5,
      "creator_id": 10021,
      "serie_id": 18976,
      "title": "EDGE OF SPIDER-VERSE/AVENGERS: TIME RUNS OUT MINI-POSTER (2014)",
      "description": null,
      "start_year": 2014,
      "end_year": 2014,
      "image_url": "http://gateway.marvel.com/v1/public/series/18976",
      "rating": "",
      "created_at": "2022-10-13T15:10:54.791Z",
      "updated_at": "2022-10-13T15:10:54.791Z"
    },
    {
      "id": 6,
      "creator_id": 10021,
      "serie_id": 18842,
      "title": "FANTASTIC FOUR 1 BY ROSS POSTER (2014)",
      "description": null,
      "start_year": 2014,
      "end_year": 2014,
      "image_url": "http://gateway.marvel.com/v1/public/series/18842",
      "rating": "",
      "created_at": "2022-10-13T15:10:54.804Z",
      "updated_at": "2022-10-13T15:10:54.804Z"
    },
    {
      "id": 7,
      "creator_id": 10021,
      "serie_id": 18218,
      "title": "INFINITY POSTER (2013)",
      "description": null,
      "start_year": 2013,
      "end_year": 2013,
      "image_url": "http://gateway.marvel.com/v1/public/series/18218",
      "rating": "",
      "created_at": "2022-10-13T15:10:54.817Z",
      "updated_at": "2022-10-13T15:10:54.817Z"
    },
    {
      "id": 8,
      "creator_id": 10021,
      "serie_id": 23665,
      "title": "Marvel Previews (2017 - Present)",
      "description": null,
      "start_year": 2017,
      "end_year": 2017,
      "image_url": "http://gateway.marvel.com/v1/public/series/23665",
      "rating": "",
      "created_at": "2022-10-13T15:10:54.834Z",
      "updated_at": "2022-10-13T15:10:54.834Z"
    },
    {
      "id": 9,
      "creator_id": 10021,
      "serie_id": 753,
      "title": "New Avengers (2004 - 2010)",
      "description": "The Avengers have diassembled...long live the New Avengers! A breakout at the Raft superhuman prison facility unites the likes of Captain America and Iron Man with Spider-Man and Wolverine to form Earth's Mightiest Heroes as never before! Watch the team persevere through Civil War, Secret Invasion, Dark Reign and onward!",
      "start_year": 2004,
      "end_year": 2004,
      "image_url": "http://gateway.marvel.com/v1/public/series/753",
      "rating": "A",
      "created_at": "2022-10-13T15:10:54.847Z",
      "updated_at": "2022-10-13T15:10:54.847Z"
    },
    {
      "id": 10,
      "creator_id": 10021,
      "serie_id": 2504,
      "title": "Nova (2007 - 2010)",
      "description": "He may just be a kid from Long Island, but now Rich Rider must step up as the galaxy's top protector! In the wake of Annihilation, Nova the Human Rocket stands on the front lines of cosmic adventure as the last of the Nova Corps and our only hope against threats from the furthest reaches of the Marvel Universe!",
      "start_year": 2007,
      "end_year": 2007,
      "image_url": "http://gateway.marvel.com/v1/public/series/2504",
      "rating": "T",
      "created_at": "2022-10-13T15:10:54.863Z",
      "updated_at": "2022-10-13T15:10:54.863Z"
    },
    {
      "id": 11,
      "creator_id": 10021,
      "serie_id": 18985,
      "title": "ORIGINAL SIN 3.1/ORIGINAL SIN 5.1 MINI-POSTER (2014)",
      "description": null,
      "start_year": 2014,
      "end_year": 2014,
      "image_url": "http://gateway.marvel.com/v1/public/series/18985",
      "rating": "",
      "created_at": "2022-10-13T15:10:54.878Z",
      "updated_at": "2022-10-13T15:10:54.878Z"
    }
  ],
  "metadata": {
    "scaffold_url": "/api/v1/series?page=__pagy_page__",
    "first_url": "/api/v1/series?page=1",
    "prev_url": "/api/v1/series?page=",
    "page_url": "/api/v1/series?page=1",
    "next_url": "/api/v1/series?page=2",
    "last_url": "/api/v1/series?page=273",
    "count": 2728,
    "page": 1,
    "items": 10,
    "vars": {
      "page": 1,
      "items": 10,
      "outset": 0,
      "size": [
        1,
        4,
        4,
        1
      ],
      "page_param": "page",
      "params": {},
      "fragment": "",
      "link_extra": "",
      "i18n_key": "pagy.item_name",
      "cycle": false,
      "metadata": [
        "scaffold_url",
        "first_url",
        "prev_url",
        "page_url",
        "next_url",
        "last_url",
        "count",
        "page",
        "items",
        "vars",
        "pages",
        "last",
        "in",
        "from",
        "to",
        "prev",
        "next",
        "series"
      ],
      "count": 2728
    },
    "pages": 273,
    "last": 273,
    "in": 10,
    "from": 1,
    "to": 10,
    "prev": null,
    "next": 2,
    "series": [
      "1",
      2,
      3,
      4,
      5,
      "gap",
      273
    ]
  }
}