{
  "data": [
    {
      "id": 9,
      "creator_id": 10021,
      "first_name": "Jim",
      "last_name": "Nausedas",
      "image_url": "http://gateway.marvel.com/v1/public/creators/10021",
      "created_at": "2022-10-13T15:10:53.597Z",
      "updated_at": "2022-10-13T15:10:53.597Z"
    },
    {
      "id": 10,
      "creator_id": 10021,
      "first_name": "Jim",
      "last_name": "Nausedas",
      "image_url": "http://gateway.marvel.com/v1/public/creators/10021",
      "created_at": "2022-10-13T15:10:58.345Z",
      "updated_at": "2022-10-13T15:10:58.345Z"
    },
    {
      "id": 11,
      "creator_id": 55,
      "first_name": "Paul",
      "last_name": "Jenkins",
      "image_url": "http://gateway.marvel.com/v1/public/creators/55",
      "created_at": "2022-10-13T15:11:01.636Z",
      "updated_at": "2022-10-13T15:11:01.636Z"
    },
    {
      "id": 12,
      "creator_id": 10021,
      "first_name": "Jim",
      "last_name": "Nausedas",
      "image_url": "http://gateway.marvel.com/v1/public/creators/10021",
      "created_at": "2022-10-13T15:11:02.280Z",
      "updated_at": "2022-10-13T15:11:02.280Z"
    },
    {
      "id": 13,
      "creator_id": 56,
      "first_name": "Jae",
      "last_name": "Lee",
      "image_url": "http://gateway.marvel.com/v1/public/creators/56",
      "created_at": "2022-10-13T15:11:03.170Z",
      "updated_at": "2022-10-13T15:11:03.170Z"
    },
    {
      "id": 14,
      "creator_id": 10021,
      "first_name": "Jim",
      "last_name": "Nausedas",
      "image_url": "http://gateway.marvel.com/v1/public/creators/10021",
      "created_at": "2022-10-13T15:11:06.974Z",
      "updated_at": "2022-10-13T15:11:06.974Z"
    },
    {
      "id": 15,
      "creator_id": 600,
      "first_name": "Clayton",
      "last_name": "Crain",
      "image_url": "http://gateway.marvel.com/v1/public/creators/600",
      "created_at": "2022-10-13T15:11:08.501Z",
      "updated_at": "2022-10-13T15:11:08.501Z"
    },
    {
      "id": 16,
      "creator_id": 344,
      "first_name": "Daniel",
      "last_name": "Way",
      "image_url": "http://gateway.marvel.com/v1/public/creators/344",
      "created_at": "2022-10-13T15:11:10.086Z",
      "updated_at": "2022-10-13T15:11:10.086Z"
    },
    {
      "id": 17,
      "creator_id": 55,
      "first_name": "Paul",
      "last_name": "Jenkins",
      "image_url": "http://gateway.marvel.com/v1/public/creators/55",
      "created_at": "2022-10-13T15:11:10.233Z",
      "updated_at": "2022-10-13T15:11:10.233Z"
    },
    {
      "id": 18,
      "creator_id": 56,
      "first_name": "Jae",
      "last_name": "Lee",
      "image_url": "http://gateway.marvel.com/v1/public/creators/56",
      "created_at": "2022-10-13T15:11:12.071Z",
      "updated_at": "2022-10-13T15:11:12.071Z"
    }
  ],
  "metadata": {
    "scaffold_url": "/api/v1/creators?page=__pagy_page__",
    "first_url": "/api/v1/creators?page=1",
    "prev_url": "/api/v1/creators?page=",
    "page_url": "/api/v1/creators?page=1",
    "next_url": "/api/v1/creators?page=2",
    "last_url": "/api/v1/creators?page=16",
    "count": 158,
    "page": 1,
    "items": 10,
    "vars": {
      "page": 1,
      "items": 10,
      "outset": 0,
      "size": [
        1,
        4,
        4,
        1
      ],
      "page_param": "page",
      "params": {},
      "fragment": "",
      "link_extra": "",
      "i18n_key": "pagy.item_name",
      "cycle": false,
      "metadata": [
        "scaffold_url",
        "first_url",
        "prev_url",
        "page_url",
        "next_url",
        "last_url",
        "count",
        "page",
        "items",
        "vars",
        "pages",
        "last",
        "in",
        "from",
        "to",
        "prev",
        "next",
        "series"
      ],
      "count": 158
    },
    "pages": 16,
    "last": 16,
    "in": 10,
    "from": 1,
    "to": 10,
    "prev": null,
    "next": 2,
    "series": [
      "1",
      2,
      3,
      4,
      5,
      "gap",
      16
    ]
  }
}